newmtl floor
  map_Kd textures/crimzan/hexagon/HexagonTile_SPEC.png

newmtl ceiling
  map_Kd textures/crimzan/hexagon/HexagonTile_DIFF.png
newmtl light
  map_Kd textures/crimzan/hexagon/HexagonTile_HGT.png
newmtl wall_0
  map_Kd textures/p0ss/rusted-metal/metall010-new-tileable-bar_0.png
