v 0 0 0
v 1 0 0
v 1 1 0
v 0 1 0
v 0 0 1.7
v 1 0 1.7
v 1 1 1.7
v 0 1 1.7
vt 0 0
vt 1 0
vt 1 1
vt 0 1
vn  0  0 -1
vn  0  0  1
vn  0 -1  0
vn  0  1  0
vn -1  0  0
vn  1  0  0
f 4/1/1 3/2/1 2/3/1 1/4/1
f 5/1/2 6/2/2 7/3/2 8/4/2
f 1/1/3 2/2/3 6/3/3 5/4/3
f 3/1/4 4/2/4 8/3/4 7/4/4
f 4/1/5 1/2/5 5/3/5 8/4/5
f 2/1/6 3/2/6 7/3/6 6/4/6

